[
  {
    "name": "OP",
    "date": "2022-02-26 15:42:36.000",
    "creator_id": 1
  },
  {
    "name": "SC",
    "date": "2022-02-26 15:42:36.000",
    "creator_id": 1
  },
  {
    "name": "ED",
    "date": "2022-02-26 15:42:36.000",
    "creator_id": 1
  },
  {
    "name": "XC",
    "date": "2022-02-26 15:42:36.000",
    "creator_id": 1
  },
  {
    "name": "PX",
    "date": "2022-02-26 15:42:36.000",
    "creator_id": 1
  },
  {
    "name": "SR",
    "date": "2022-02-26 15:42:36.000",
    "creator_id": 1
  },
  {
    "name": "IO",
    "date": "2022-02-26 15:42:36.000",
    "creator_id": 1
  },
  {
    "name": "PR",
    "date": "2022-02-26 15:42:36.000",
    "creator_id": 1
  }
]